[
  {
    "name": "auth",
    "path": "/auth",
    "component": "C:\\\\printino\\\\panel\\\\pages\\\\auth\\\\index.vue",
    "chunkName": "pages/auth/index",
    "_name": "_56dd0618"
  },
  {
    "name": "auth-forgetpassword",
    "path": "/auth/forgetpassword",
    "component": "C:\\\\printino\\\\panel\\\\pages\\\\auth\\\\forgetpassword.vue",
    "chunkName": "pages/auth/forgetpassword",
    "_name": "_5aa96e32"
  },
  {
    "name": "auth-login",
    "path": "/auth/login",
    "component": "C:\\\\printino\\\\panel\\\\pages\\\\auth\\\\login.vue",
    "chunkName": "pages/auth/login",
    "_name": "_2084a92f"
  },
  {
    "name": "auth-smsverification",
    "path": "/auth/smsverification",
    "component": "C:\\\\printino\\\\panel\\\\pages\\\\auth\\\\smsverification.vue",
    "chunkName": "pages/auth/smsverification",
    "_name": "_9314de8c"
  },
  {
    "name": "panel-amin",
    "path": "/panel/amin",
    "component": "C:\\\\printino\\\\panel\\\\pages\\\\panel\\\\amin.vue",
    "chunkName": "pages/panel/amin",
    "_name": "_ac03927a"
  },
  {
    "name": "panel-brands",
    "path": "/panel/brands",
    "component": "C:\\\\printino\\\\panel\\\\pages\\\\panel\\\\brands.vue",
    "chunkName": "pages/panel/brands",
    "_name": "_19bd3a3e"
  },
  {
    "name": "panel-category",
    "path": "/panel/category",
    "component": "C:\\\\printino\\\\panel\\\\pages\\\\panel\\\\category.vue",
    "chunkName": "pages/panel/category",
    "_name": "_f1f94c20"
  },
  {
    "name": "panel-comments",
    "path": "/panel/comments",
    "component": "C:\\\\printino\\\\panel\\\\pages\\\\panel\\\\comments.vue",
    "chunkName": "pages/panel/comments",
    "_name": "_c3d9e034"
  },
  {
    "name": "panel-create-product",
    "path": "/panel/create-product",
    "component": "C:\\\\printino\\\\panel\\\\pages\\\\panel\\\\create-product.vue",
    "chunkName": "pages/panel/create-product",
    "_name": "_1d373690"
  },
  {
    "name": "panel-dashboard",
    "path": "/panel/dashboard",
    "component": "C:\\\\printino\\\\panel\\\\pages\\\\panel\\\\dashboard.vue",
    "chunkName": "pages/panel/dashboard",
    "_name": "_1e28c512"
  },
  {
    "name": "panel-gallery",
    "path": "/panel/gallery",
    "component": "C:\\\\printino\\\\panel\\\\pages\\\\panel\\\\gallery.vue",
    "chunkName": "pages/panel/gallery",
    "_name": "_d83df760"
  },
  {
    "name": "panel-pages",
    "path": "/panel/pages",
    "component": "C:\\\\printino\\\\panel\\\\pages\\\\panel\\\\pages\\\\index.vue",
    "chunkName": "pages/panel/pages/index",
    "_name": "_6fbdb100"
  },
  {
    "name": "panel-products",
    "path": "/panel/products",
    "component": "C:\\\\printino\\\\panel\\\\pages\\\\panel\\\\products\\\\index.vue",
    "chunkName": "pages/panel/products/index",
    "_name": "_4ae58728"
  },
  {
    "name": "panel-properties",
    "path": "/panel/properties",
    "component": "C:\\\\printino\\\\panel\\\\pages\\\\panel\\\\properties\\\\index.vue",
    "chunkName": "pages/panel/properties/index",
    "_name": "_1c2f97bd"
  },
  {
    "name": "panel-sellers",
    "path": "/panel/sellers",
    "component": "C:\\\\printino\\\\panel\\\\pages\\\\panel\\\\sellers.vue",
    "chunkName": "pages/panel/sellers",
    "_name": "_5f6a9cd2"
  },
  {
    "name": "panel-transaction",
    "path": "/panel/transaction",
    "component": "C:\\\\printino\\\\panel\\\\pages\\\\panel\\\\transaction.vue",
    "chunkName": "pages/panel/transaction",
    "_name": "_33c096dc"
  },
  {
    "name": "panel-products-Inventory-id",
    "path": "/panel/products/Inventory/:id?",
    "component": "C:\\\\printino\\\\panel\\\\pages\\\\panel\\\\products\\\\Inventory\\\\_id.vue",
    "chunkName": "pages/panel/products/Inventory/_id",
    "_name": "_7ca5a358"
  },
  {
    "name": "panel-products-seller-id",
    "path": "/panel/products/seller/:id?",
    "component": "C:\\\\printino\\\\panel\\\\pages\\\\panel\\\\products\\\\seller\\\\_id.vue",
    "chunkName": "pages/panel/products/seller/_id",
    "_name": "_c4fb0896"
  },
  {
    "name": "panel-products-id",
    "path": "/panel/products/:id",
    "component": "C:\\\\printino\\\\panel\\\\pages\\\\panel\\\\products\\\\_id.vue",
    "chunkName": "pages/panel/products/_id",
    "_name": "_02d769d4"
  },
  {
    "name": "panel-properties-id",
    "path": "/panel/properties/:id",
    "component": "C:\\\\printino\\\\panel\\\\pages\\\\panel\\\\properties\\\\_id.vue",
    "chunkName": "pages/panel/properties/_id",
    "_name": "_154a6565"
  },
  {
    "name": "panel-pages-pageId-rows",
    "path": "/panel/pages/:pageId/rows",
    "component": "C:\\\\printino\\\\panel\\\\pages\\\\panel\\\\pages\\\\_pageId\\\\rows\\\\index.vue",
    "chunkName": "pages/panel/pages/_pageId/rows/index",
    "_name": "_461cbedc"
  },
  {
    "name": "panel-pages-pageId-rows-rowId-cols",
    "path": "/panel/pages/:pageId/rows/:rowId/cols",
    "component": "C:\\\\printino\\\\panel\\\\pages\\\\panel\\\\pages\\\\_pageId\\\\rows\\\\_rowId\\\\cols.vue",
    "chunkName": "pages/panel/pages/_pageId/rows/_rowId/cols",
    "_name": "_fdb9d70e"
  },
  {
    "name": "index",
    "path": "/",
    "component": "C:\\\\printino\\\\panel\\\\pages\\\\index.vue",
    "chunkName": "pages/index",
    "_name": "_182f9e80"
  }
]
